month,hour,ro,e,tp
1,0,0.0302333337785437,0.012046127303047,0.142305109458108
1,1,0.0320992134163262,0.0230710718029828,0.137493165282079
1,2,0.0245782753584351,0.0559079620693311,0.136786911050363
1,3,0.0243584635409027,0.110128854129223,0.126535997210346
1,4,0.0242646273811962,0.143173678609934,0.125241489286725
1,5,0.0214161452124438,0.163693099277606,0.124870650554575
1,6,0.0218084357789315,0.166294008400318,0.120373914629322
1,7,0.0173049445299582,0.136634835837506,0.129662166046397
1,8,0.0161952634264336,0.110651513631985,0.127518427692102
1,9,0.0183744653004575,0.0725463448190615,0.129034585285691
1,10,0.0192712473465875,0.0322618418010542,0.127120890765352
1,11,0.0237117441294495,0.0133890228098584,0.127036702489546
1,12,0.0222889042206584,0.0114469550011422,0.12830902674952
1,13,0.0217567209930315,0.0108211339344524,0.140088602703205
1,14,0.0175429823212069,0.0106432106069841,0.140315109392939
1,15,0.0187332217895497,0.0105376726281327,0.143275768363407
1,16,0.0239877390770547,0.0103850965541766,0.159626123201388
1,17,0.027777605215393,0.0103536340002828,0.17193468723064
1,18,0.0251494095520374,0.0104394119738212,0.18500169979374
1,19,0.0302851125723853,0.0106363587155336,0.165621841513807
1,20,0.0280936474078447,0.0112046889932073,0.162620082469182
1,21,0.0300995381754299,0.010874099218919,0.159404414794125
1,22,0.0259413923243977,0.0107929298595617,0.152908630664271
1,23,0.0243999843045886,0.0107643506694772,0.153512827958188
2,0,0.0395236234780445,0.0134543354438048,0.188139313733145
2,1,0.0377023394271434,0.0268116615224414,0.181960539361728
2,2,0.0414724766076387,0.0717915356841736,0.176030785302323
2,3,0.0407708549996039,0.134387718955243,0.168122246781287
2,4,0.0419844740820405,0.171752480499429,0.167707125627073
2,5,0.0445224095950077,0.194607890296524,0.16701431923301
2,6,0.0398870526122454,0.197066808940423,0.164220609572182
2,7,0.0442884933507133,0.166552977343807,0.14287383936771
2,8,0.0382902770459121,0.141076567082444,0.132369503503987
2,9,0.0340002988692104,0.0979679129558326,0.13216549645943
2,10,0.0344512074852267,0.0496562472531907,0.137019303768239
2,11,0.0403977479859208,0.0168075156668308,0.137447765537985
2,12,0.036745851826921,0.011775213806708,0.152000352910217
2,13,0.0436495489613656,0.0105358714040856,0.162209780372221
2,14,0.0461089935139254,0.00998822596640921,0.167190941535944
2,15,0.0484747602667671,0.00961589102051223,0.17707907573794
2,16,0.0505422968729516,0.00951273742922316,0.172150868141085
2,17,0.0505389958074167,0.00971641770150911,0.177708294288738
2,18,0.0456291488260013,0.00996116366557849,0.195192094296608
2,19,0.044044786135229,0.0104987299390627,0.176588764016736
2,20,0.0476570303202639,0.0110240999561537,0.181739645732784
2,21,0.0439903129361777,0.0108153451789332,0.196623844667779
2,22,0.0418346417820632,0.0109641527590207,0.198253781553001
2,23,0.0491372055737463,0.0110968670225773,0.19364482071314
3,0,0.13447647810424,0.0172193219036653,0.339115294230051
3,1,0.142151757871313,0.0400840036010509,0.360875213760045
3,2,0.137490410418518,0.113893864271151,0.356769704260931
3,3,0.12989806001287,0.17253354002323,0.351666269232905
3,4,0.136675733623724,0.212346399980458,0.356332243986684
3,5,0.128163661709158,0.23520068257127,0.338891163763322
3,6,0.110335040964363,0.233415839999927,0.323968039751699
3,7,0.10232701602976,0.215092305868879,0.245813019419933
3,8,0.0948424826933633,0.181228312516005,0.238377394932771
3,9,0.085720907835588,0.129535830062403,0.217256519052128
3,10,0.0868296653233475,0.0704223801081324,0.216578159145783
3,11,0.098057333472736,0.0244813213287147,0.215481287515064
3,12,0.113347844377206,0.0133573057709872,0.246506735428497
3,13,0.118217078885662,0.0116968647950693,0.271163179656125
3,14,0.11707237906642,0.0109534959748924,0.284809512875144
3,15,0.126320489091929,0.0103946899394446,0.29458556736132
3,16,0.133903050792624,0.0102355197897167,0.292888854756031
3,17,0.125535874543611,0.0101694616478072,0.320175126155712
3,18,0.142616469434386,0.0100910621152295,0.35629789734673
3,19,0.129133426411068,0.0110049921807624,0.308861529669855
3,20,0.136375578611814,0.0116335069013755,0.319331897935096
3,21,0.134697403137434,0.0111787533172208,0.315145335977893
3,22,0.135893022728886,0.0110076259708359,0.32064177875714
3,23,0.139660254022816,0.010954049452848,0.324044641898383
4,0,0.316156089773465,0.024119431235519,0.456330297312326
4,1,0.312083204196987,0.0896058970403168,0.458248566933198
4,2,0.29305210808963,0.181566900402523,0.449794791750077
4,3,0.319707262256139,0.242556518015956,0.468056639156214
4,4,0.3412051408075,0.293840228091535,0.495555698456389
4,5,0.335727443215657,0.318949277167514,0.489130129001833
4,6,0.349975472340192,0.317883273402578,0.479663179365395
4,7,0.346501708513349,0.291711018060347,0.428039227793385
4,8,0.320829649406355,0.248120049783024,0.383490895214797
4,9,0.315765464144508,0.176229021492954,0.37060978332336
4,10,0.312033656800356,0.101416392652874,0.389854123495568
4,11,0.310324701258068,0.0353842598759644,0.39527314140304
4,12,0.313661580874895,0.013119586096682,0.46647512300092
4,13,0.31709546832993,0.0101006849134495,0.500189176100515
4,14,0.31439875114232,0.00897854716478296,0.479076150682288
4,15,0.308087163566482,0.00814707195137889,0.426048329540781
4,16,0.312718833765157,0.00730444345905103,0.407867197888111
4,17,0.305535099584652,0.00681795889665502,0.379151972762206
4,18,0.315494509419509,0.00659385202741879,0.389676450095248
4,19,0.316215372101234,0.00695048365530432,0.363414156640867
4,20,0.324007016310389,0.00716965668113915,0.406250296640092
4,21,0.317214081311683,0.00736447343878235,0.444988826960028
4,22,0.308760414926156,0.00774667439375086,0.425760715723033
4,23,0.318232057682059,0.0103181782094513,0.444403953032011
5,0,0.318296638272523,0.0378256247018558,0.487316255243874
5,1,0.305373855320477,0.148861681425143,0.440034640823408
5,2,0.318881079356359,0.244861416949233,0.447917867484533
5,3,0.317891738788683,0.313717784714604,0.480129878390954
5,4,0.340845304300561,0.365117493777884,0.510234770602479
5,5,0.352984069920305,0.393661231511179,0.560211437125708
5,6,0.379430620875071,0.38697336416223,0.583528227754824
5,7,0.357332351164027,0.360691951500156,0.475459692842421
5,8,0.324435316070389,0.304772049578552,0.490715288933072
5,9,0.312644977320445,0.232143379511657,0.427102708137841
5,10,0.316603660461075,0.140992484877994,0.418359846186117
5,11,0.304630914875152,0.0570808444844034,0.357565809614443
5,12,0.308531326559755,0.0163040160278478,0.379328700992627
5,13,0.302817099728862,0.01023638048539,0.335384165153045
5,14,0.273780204546415,0.00846449462663682,0.288833025474402
5,15,0.245727517668048,0.00738259605340509,0.244859221728494
5,16,0.2380702372241,0.00663862614924178,0.269498293252358
5,17,0.252161758215112,0.00605776534349511,0.317338050638139
5,18,0.276018413992709,0.00583520406820052,0.373061841425531
5,19,0.273100909306973,0.00638477608161632,0.375141943907869
5,20,0.273953869403742,0.00630904081874153,0.396194411269978
5,21,0.274279906900437,0.00617746889394198,0.436615800512297
5,22,0.304606150414282,0.00634656339442751,0.50786243305819
5,23,0.342420645965636,0.0119341197701292,0.536182199006719
6,0,0.280783705285337,0.0467606349032028,0.393758978512853
6,1,0.289155000018769,0.164259795504772,0.420642164349186
6,2,0.312069536164169,0.249927252507104,0.477162608952899
6,3,0.321679058457533,0.321843738821589,0.510442600315882
6,4,0.324745964385766,0.371914050749289,0.596213397487524
6,5,0.329436442611649,0.404157974533468,0.602081607246863
6,6,0.336961997784229,0.401673802359674,0.630891624373221
6,7,0.336951511774699,0.389539891590802,0.683139455878908
6,8,0.378187267662115,0.331317934094522,0.684103718291313
6,9,0.406550016029567,0.256287413302937,0.693938370904271
6,10,0.335703564367435,0.162191998877114,0.53508645961826
6,11,0.315123102270952,0.0730599913598502,0.416531958605494
6,12,0.294715761310315,0.0195694855909728,0.37763885390105
6,13,0.287146673086004,0.00961244100996096,0.348778331169733
6,14,0.280016426296802,0.00639356552779887,0.321206227929372
6,15,0.260527443662373,0.00507683618128513,0.285614849917965
6,16,0.260805707539304,0.00446745974377695,0.279918180435958
6,17,0.261191446177462,0.00458117101677526,0.324744630768295
6,18,0.268673117054536,0.00482333043456821,0.37863178126097
6,19,0.277314747718609,0.00496278430514166,0.36262368337707
6,20,0.280801182295551,0.0047589644077931,0.400237222494175
6,21,0.26724774269305,0.00472594363394386,0.424845022039759
6,22,0.28130373644321,0.00478429502501154,0.442991909295257
6,23,0.287744421095482,0.0117323120720161,0.403792264696937
7,0,0.173502968338321,0.05377580884966,0.178162345209429
7,1,0.171780138686245,0.218923994230468,0.202041053105217
7,2,0.156461139324491,0.333499679516217,0.212369286632879
7,3,0.16529831252936,0.420943299354959,0.251670015254718
7,4,0.168776337790105,0.485850009963269,0.294398127841963
7,5,0.181153509239129,0.509713220308821,0.355122660177833
7,6,0.20279112431001,0.510302804064336,0.475067524652503
7,7,0.177026461630281,0.478272112588985,0.394232219560074
7,8,0.177430810836737,0.411064167508651,0.399444283510453
7,9,0.179583882088867,0.321648829052249,0.375984718175062
7,10,0.162546481740001,0.212249418464294,0.309796108695908
7,11,0.161329461165626,0.0990383853026273,0.23343353113995
7,12,0.161306869158578,0.0269560112659646,0.183667678509977
7,13,0.153054669907388,0.0135730372772898,0.174913187775106
7,14,0.143417938557614,0.00871920569617374,0.12655129809738
7,15,0.145956257275897,0.00641520869984967,0.134180266994728
7,16,0.162334582681904,0.00534488527655308,0.18678961023999
7,17,0.176011093433238,0.00484732825603588,0.209231741547912
7,18,0.197157227152485,0.00479414794750912,0.243209471777228
7,19,0.187564170926126,0.00543415841171372,0.224850572073915
7,20,0.182114217706434,0.00431004210981502,0.223133546398494
7,21,0.185770416044452,0.00437775398138769,0.228169359699048
7,22,0.184303258863049,0.00407935876694257,0.198918005711232
7,23,0.18033804375457,0.0116235229574408,0.175925010956532
8,0,0.0579697491033335,0.0303959385593704,0.117522294918061
8,1,0.0571216746967778,0.199224903098273,0.125923388871365
8,2,0.0543906172142648,0.329753661936566,0.130019624883494
8,3,0.0533484125143348,0.423227299413984,0.139306098094486
8,4,0.0604649375839805,0.493936407902622,0.21095302434054
8,5,0.0663625748933099,0.528709452217525,0.269065946678059
8,6,0.0763219274696642,0.525750043677633,0.299025017744981
8,7,0.0884062910847357,0.483362005385948,0.365791657098542
8,8,0.0809691083369454,0.403544985782416,0.420503517586433
8,9,0.0657851244833364,0.307339972078023,0.32505261285011
8,10,0.0591649683386149,0.192799578767063,0.224973089811471
8,11,0.0519249750486761,0.0797912947846712,0.12686832393979
8,12,0.0491907936605098,0.0217844259619072,0.1038319923299
8,13,0.0473942938789835,0.0117108196288564,0.0905289331125709
8,14,0.0457331665265182,0.00801049098410985,0.058176190991747
8,15,0.0440131303140248,0.00623264278273542,0.0532503167642125
8,16,0.0437539307383815,0.00513110601818902,0.0622896845375308
8,17,0.0445926563545318,0.00453075214592891,0.0759079942902279
8,18,0.0442283853925972,0.00439050081983183,0.0827303196909166
8,19,0.0473310800062458,0.00523052570015445,0.102877356414667
8,20,0.0482115011408535,0.00459971995490898,0.115227955555164
8,21,0.0483123806902469,0.00459933089231645,0.119360346000771
8,22,0.0503798292973441,0.00434201590361185,0.122244600063371
8,23,0.0535221889506603,0.00718405941942126,0.135018890770704
9,0,0.0492013365189925,0.0293876661106638,0.143675334459759
9,1,0.0471374531973336,0.14897376231568,0.136804391836105
9,2,0.0425990157283257,0.283129786652593,0.119413795930936
9,3,0.0439555355703212,0.375936348684371,0.128414531752201
9,4,0.0456974498959531,0.442469027398766,0.171971869711844
9,5,0.0561214476416719,0.463954935126595,0.228042672729511
9,6,0.0579218262812082,0.448876622917987,0.267716228358983
9,7,0.0410515842721559,0.389981666543979,0.226994590623239
9,8,0.0350067271866533,0.326195487882292,0.213069302809341
9,9,0.0299617480869912,0.234011100224311,0.154152499429125
9,10,0.0309176017314794,0.130938016591617,0.1303714662387
9,11,0.0315478935819766,0.0410562950971838,0.0905212402450025
9,12,0.0258565189769107,0.0185849398011274,0.067710025501649
9,13,0.0252298581136376,0.0134149618604697,0.0485742361580477
9,14,0.0235809761746483,0.0110684501543172,0.0438471360689724
9,15,0.0241287549852105,0.00957856151528992,0.0557589360089711
9,16,0.0272701087811548,0.0085785883014675,0.0722448240332831
9,17,0.0282498961317949,0.00795607246002456,0.087747074249231
9,18,0.0269792840959255,0.00751961139445683,0.0999689070364457
9,19,0.0278035066914725,0.00805804888952562,0.104049052338509
9,20,0.0315108024124493,0.00807887140791731,0.124635264031877
9,21,0.0379465399814861,0.0078279852796138,0.140833304408769
9,22,0.0394466899639967,0.00778639889054587,0.137009696766996
9,23,0.0466966000444131,0.00962574362686459,0.140329869123023
10,0,0.0162491339626581,0.0218290446084218,0.0590136157394332
10,1,0.0153616413191894,0.0895225325504154,0.0440922169386227
10,2,0.0150436777220455,0.216582122415828,0.0396278507255995
10,3,0.0149107603304259,0.295634504883526,0.0410947627045553
10,4,0.0160306030664815,0.350625525533016,0.0466575101371117
10,5,0.0174793174513923,0.374003120440422,0.0564701215879866
10,6,0.0161593771444088,0.358825165504853,0.0610318312436466
10,7,0.0184211740824136,0.288133857827465,0.110612806585433
10,8,0.0160439443331979,0.229151090829008,0.0838795585627537
10,9,0.0159478488628383,0.150598333713477,0.0739157608091801
10,10,0.0166565303559746,0.0652185606653105,0.0670321043967992
10,11,0.0157987670985013,0.0186950921479727,0.0656574413757152
10,12,0.0164510243100507,0.0130872520471711,0.0685705587593141
10,13,0.0169578490297064,0.0107693599629747,0.0585164858222333
10,14,0.0160647277813347,0.00951008721496879,0.0507341995625623
10,15,0.0175936602933464,0.00840295543888966,0.0539185256646008
10,16,0.0194112292422103,0.00768135083340054,0.0594694749144833
10,17,0.0191474462191548,0.00712556606282229,0.0735758459967011
10,18,0.0205725827888074,0.0068546867987796,0.0762758560860241
10,19,0.0157927591526127,0.00703806232204216,0.0522218242877908
10,20,0.0157407221069734,0.00708391379233061,0.0598282305087847
10,21,0.0157416152081706,0.00714585495189759,0.0635135765834979
10,22,0.0162067520342648,0.00718228746919124,0.0652990849071172
10,23,0.0159481260958117,0.00778772499649404,0.0686450694658548
11,0,0.0248100489680004,0.0138172675212173,0.13343830195487
11,1,0.0264260532103134,0.0349037499544979,0.130104018855428
11,2,0.023443828104148,0.126873210469575,0.126205901884447
11,3,0.0201197240878082,0.195002727518257,0.11851615461446
11,4,0.0206167595368372,0.235864180545488,0.1244648889252
11,5,0.0210218599757444,0.25689484946259,0.130997400926645
11,6,0.0264960190203228,0.246905886689292,0.130408892028218
11,7,0.0263751359997612,0.208464384406346,0.132415119728942
11,8,0.031257261817962,0.157064604954463,0.122251105858618
11,9,0.0221971069248623,0.0899694490001767,0.118828633383174
11,10,0.0198535995342951,0.029988684814512,0.121292317691515
11,11,0.0318305653019294,0.0130651678430405,0.132549657152897
11,12,0.0362351815816248,0.0106553874281117,0.143764526060229
11,13,0.0445782041466195,0.00974015952446503,0.157688183402814
11,14,0.0333362543262624,0.00928047851089719,0.16675768878183
11,15,0.0300158912594958,0.00874850464552708,0.175949735675783
11,16,0.0280583380785199,0.00842221528468253,0.177759994506902
11,17,0.0292215648489159,0.00823707147203663,0.188157597340708
11,18,0.029953772180857,0.00806376994495986,0.182120556710128
11,19,0.0267123838180525,0.00850524445091713,0.12475010797622
11,20,0.0187528679595959,0.00839933526409054,0.113328338414636
11,21,0.0224022260071283,0.00811865826008255,0.112921162054464
11,22,0.02212756309239,0.00788859878628078,0.116142825357088
11,23,0.0266430265083204,0.00770626630361532,0.121503240447347
12,0,0.0292222401204866,0.011538452424805,0.110419026201762
12,1,0.0271806158098997,0.0239615681740931,0.0986879690393056
12,2,0.0233485025752019,0.0674298427202096,0.0965988157081944
12,3,0.0259436057252105,0.135647809538356,0.0996819905128315
12,4,0.0267942242730557,0.171827027362475,0.102884094869822
12,5,0.0338551867486841,0.190559853470823,0.107599454713109
12,6,0.0297942828695994,0.187538573011727,0.0953171854794201
12,7,0.0306583881337602,0.160636131637793,0.0718696927141126
12,8,0.0274942311779365,0.121766363188377,0.0653779730781746
12,9,0.0235456711244484,0.070140912204919,0.0647131734879406
12,10,0.0216248836288732,0.0242781936453305,0.070214340794806
12,11,0.0209153225057886,0.0115732401877634,0.0752502903192287
12,12,0.0220519258991757,0.00995237628858389,0.0776484640086832
12,13,0.0219356002264793,0.00916906284474647,0.0811698353503947
12,14,0.0232707023062675,0.00874217367020619,0.0886703812992565
12,15,0.0257007637414098,0.00857299746696993,0.0994836811736018
12,16,0.0256512529358489,0.00849549793760579,0.104803698794821
12,17,0.0262299997908349,0.00847117197083724,0.111674592175613
12,18,0.0241894818901993,0.0084296232109778,0.116911299366188
12,19,0.0243816182711955,0.00880746575193301,0.0963252840534621
12,20,0.0256376606255726,0.00905784178514146,0.103517732780394
12,21,0.0271628201144484,0.00901470475880991,0.107483825172828
12,22,0.0250082726625017,0.00913008020849718,0.109758432240321
12,23,0.0282254817663287,0.00925820924971393,0.107872844304315
